x 			DSaaS Get		Dat Get		DSaaS Put	Dat Put
2000		0.356253		1.89479		3.75918		4.04256
4000		0.684476		3.73265		7.16682		7.57598
8000		1.49938			8.52369		14.3373		15.311
16000		2.77424			17.9169		29.1556		30.0436