%!PS-Adobe-3.0
%%Creator: graphviz version 2.38.0 (20140413.2041)
%%Title: G
%%Pages: (atend)
%%BoundingBox: (atend)
%%EndComments
save
%%BeginProlog
/DotDict 200 dict def
DotDict begin

/setupLatin1 {
mark
/EncodingVector 256 array def
 EncodingVector 0

ISOLatin1Encoding 0 255 getinterval putinterval
EncodingVector 45 /hyphen put

% Set up ISO Latin 1 character encoding
/starnetISO {
        dup dup findfont dup length dict begin
        { 1 index /FID ne { def }{ pop pop } ifelse
        } forall
        /Encoding EncodingVector def
        currentdict end definefont
} def
/Times-Roman starnetISO def
/Times-Italic starnetISO def
/Times-Bold starnetISO def
/Times-BoldItalic starnetISO def
/Helvetica starnetISO def
/Helvetica-Oblique starnetISO def
/Helvetica-Bold starnetISO def
/Helvetica-BoldOblique starnetISO def
/Courier starnetISO def
/Courier-Oblique starnetISO def
/Courier-Bold starnetISO def
/Courier-BoldOblique starnetISO def
cleartomark
} bind def

%%BeginResource: procset graphviz 0 0
/coord-font-family /Times-Roman def
/default-font-family /Times-Roman def
/coordfont coord-font-family findfont 8 scalefont def

/InvScaleFactor 1.0 def
/set_scale {
       dup 1 exch div /InvScaleFactor exch def
       scale
} bind def

% styles
/solid { [] 0 setdash } bind def
/dashed { [9 InvScaleFactor mul dup ] 0 setdash } bind def
/dotted { [1 InvScaleFactor mul 6 InvScaleFactor mul] 0 setdash } bind def
/invis {/fill {newpath} def /stroke {newpath} def /show {pop newpath} def} bind def
/bold { 2 setlinewidth } bind def
/filled { } bind def
/unfilled { } bind def
/rounded { } bind def
/diagonals { } bind def
/tapered { } bind def

% hooks for setting color 
/nodecolor { sethsbcolor } bind def
/edgecolor { sethsbcolor } bind def
/graphcolor { sethsbcolor } bind def
/nopcolor {pop pop pop} bind def

/beginpage {	% i j npages
	/npages exch def
	/j exch def
	/i exch def
	/str 10 string def
	npages 1 gt {
		gsave
			coordfont setfont
			0 0 moveto
			(\() show i str cvs show (,) show j str cvs show (\)) show
		grestore
	} if
} bind def

/set_font {
	findfont exch
	scalefont setfont
} def

% draw text fitted to its expected width
/alignedtext {			% width text
	/text exch def
	/width exch def
	gsave
		width 0 gt {
			[] 0 setdash
			text stringwidth pop width exch sub text length div 0 text ashow
		} if
	grestore
} def

/boxprim {				% xcorner ycorner xsize ysize
		4 2 roll
		moveto
		2 copy
		exch 0 rlineto
		0 exch rlineto
		pop neg 0 rlineto
		closepath
} bind def

/ellipse_path {
	/ry exch def
	/rx exch def
	/y exch def
	/x exch def
	matrix currentmatrix
	newpath
	x y translate
	rx ry scale
	0 0 1 0 360 arc
	setmatrix
} bind def

/endpage { showpage } bind def
/showpage { } def

/layercolorseq
	[	% layer color sequence - darkest to lightest
		[0 0 0]
		[.2 .8 .8]
		[.4 .8 .8]
		[.6 .8 .8]
		[.8 .8 .8]
	]
def

/layerlen layercolorseq length def

/setlayer {/maxlayer exch def /curlayer exch def
	layercolorseq curlayer 1 sub layerlen mod get
	aload pop sethsbcolor
	/nodecolor {nopcolor} def
	/edgecolor {nopcolor} def
	/graphcolor {nopcolor} def
} bind def

/onlayer { curlayer ne {invis} if } def

/onlayers {
	/myupper exch def
	/mylower exch def
	curlayer mylower lt
	curlayer myupper gt
	or
	{invis} if
} def

/curlayer 0 def

%%EndResource
%%EndProlog
%%BeginSetup
14 default-font-family set_font
1 setmiterlimit
% /arrowlength 10 def
% /arrowwidth 5 def

% make sure pdfmark is harmless for PS-interpreters other than Distiller
/pdfmark where {pop} {userdict /pdfmark /cleartomark load put} ifelse
% make '<<' and '>>' safe on PS Level 1 devices
/languagelevel where {pop languagelevel}{1} ifelse
2 lt {
    userdict (<<) cvn ([) cvn load put
    userdict (>>) cvn ([) cvn load put
} if

%%EndSetup
setupLatin1
%%Page: 1 1
%%PageBoundingBox: 36 36 503 656
%%PageOrientation: Portrait
0 0 1 beginpage
gsave
36 36 467 620 boxprim clip newpath
1 1 set_scale 0 rotate 40 40 translate
% root0
gsave
1 setlinewidth
0 0 0 nodecolor
319.56 594 40.62 18 ellipse_path stroke
0.66667 1 1 nodecolor
14 /Times-Roman set_font
295.46 589.8 moveto 48.21 (version0) alignedtext
grestore
% root1
gsave
1 setlinewidth
0 0 0 nodecolor
40.56 234 40.62 18 ellipse_path stroke
0.66667 1 1 nodecolor
14 /Times-Roman set_font
16.46 229.8 moveto 48.21 (version1) alignedtext
grestore
% node1
gsave
1 setlinewidth
0 0 0 nodecolor
53.56 162 31.94 18 ellipse_path stroke
0 0 0 nodecolor
14 /Times-Roman set_font
36.46 157.8 moveto 34.21 (node1) alignedtext
grestore
% root1->node1
gsave
1 setlinewidth
0 0 0 edgecolor
newpath 43.78 215.7 moveto
45.21 207.98 46.93 198.71 48.53 190.11 curveto
stroke
0 0 0 edgecolor
newpath 52 190.58 moveto
50.39 180.1 lineto
45.12 189.3 lineto
closepath fill
1 setlinewidth
solid
0 0 0 edgecolor
newpath 52 190.58 moveto
50.39 180.1 lineto
45.12 189.3 lineto
closepath stroke
grestore
% node2
gsave
1 setlinewidth
0 0 0 nodecolor
67.56 90 31.94 18 ellipse_path stroke
0 0 0 nodecolor
14 /Times-Roman set_font
50.46 85.8 moveto 34.21 (node2) alignedtext
grestore
% node1->node2
gsave
1 setlinewidth
0 0 0 edgecolor
newpath 56.95 144.05 moveto
58.49 136.35 60.36 127.03 62.09 118.36 curveto
stroke
0 0 0 edgecolor
newpath 65.58 118.77 moveto
64.11 108.28 lineto
58.71 117.39 lineto
closepath fill
1 setlinewidth
solid
0 0 0 edgecolor
newpath 65.58 118.77 moveto
64.11 108.28 lineto
58.71 117.39 lineto
closepath stroke
grestore
% package5
gsave
1 setlinewidth
0 0 0 nodecolor
newpath 179.45 108 moveto
117.68 108 lineto
117.68 72 lineto
179.45 72 lineto
closepath stroke
0 0 0 nodecolor
14 /Times-Roman set_font
125.62 85.8 moveto 45.88 (klmno:c) alignedtext
grestore
% node1->package5
gsave
1 setlinewidth
0 0 0 edgecolor
newpath 72.33 147.17 moveto
85.08 137.78 102.25 125.13 117.06 114.21 curveto
stroke
0 0 0 edgecolor
newpath 119.49 116.77 moveto
125.47 108.02 lineto
115.34 111.13 lineto
closepath fill
1 setlinewidth
solid
0 0 0 edgecolor
newpath 119.49 116.77 moveto
125.47 108.02 lineto
115.34 111.13 lineto
closepath stroke
grestore
% package3
gsave
1 setlinewidth
0 0 0 nodecolor
newpath 96.81 36 moveto
38.32 36 lineto
38.32 0 lineto
96.81 0 lineto
closepath stroke
0 0 0 nodecolor
14 /Times-Roman set_font
46.19 13.8 moveto 42.75 (abcde:a) alignedtext
grestore
% node2->package3
gsave
1 setlinewidth
0 0 0 edgecolor
newpath 67.56 71.7 moveto
67.56 63.98 67.56 54.71 67.56 46.11 curveto
stroke
0 0 0 edgecolor
newpath 71.06 46.1 moveto
67.56 36.1 lineto
64.06 46.1 lineto
closepath fill
1 setlinewidth
solid
0 0 0 edgecolor
newpath 71.06 46.1 moveto
67.56 36.1 lineto
64.06 46.1 lineto
closepath stroke
grestore
% package4
gsave
1 setlinewidth
0 0 0 nodecolor
newpath 205.56 36 moveto
151.56 36 lineto
151.56 0 lineto
205.56 0 lineto
closepath stroke
0 0 0 nodecolor
14 /Times-Roman set_font
159.9 13.8 moveto 37.33 (fghij:b) alignedtext
grestore
% node2->package4
gsave
1 setlinewidth
0 0 0 edgecolor
newpath 87.92 76.16 moveto
103.2 66.53 124.51 53.09 142.62 41.66 curveto
stroke
0 0 0 edgecolor
newpath 144.63 44.54 moveto
151.22 36.24 lineto
140.9 38.62 lineto
closepath fill
1 setlinewidth
solid
0 0 0 edgecolor
newpath 144.63 44.54 moveto
151.22 36.24 lineto
140.9 38.62 lineto
closepath stroke
grestore
% root2
gsave
1 setlinewidth
0 0 0 nodecolor
418.56 594 40.62 18 ellipse_path stroke
0.66667 1 1 nodecolor
14 /Times-Roman set_font
394.46 589.8 moveto 48.21 (version2) alignedtext
grestore
% node6
gsave
1 setlinewidth
0 0 0 nodecolor
418.56 522 31.94 18 ellipse_path stroke
0 0 0 nodecolor
14 /Times-Roman set_font
401.46 517.8 moveto 34.21 (node6) alignedtext
grestore
% root2->node6
gsave
1 setlinewidth
0 0 0 edgecolor
newpath 418.56 575.7 moveto
418.56 567.98 418.56 558.71 418.56 550.11 curveto
stroke
0 0 0 edgecolor
newpath 422.06 550.1 moveto
418.56 540.1 lineto
415.06 550.1 lineto
closepath fill
1 setlinewidth
solid
0 0 0 edgecolor
newpath 422.06 550.1 moveto
418.56 540.1 lineto
415.06 550.1 lineto
closepath stroke
grestore
% node7
gsave
1 setlinewidth
0 0 0 nodecolor
418.56 450 31.94 18 ellipse_path stroke
0 0 0 nodecolor
14 /Times-Roman set_font
401.46 445.8 moveto 34.21 (node7) alignedtext
grestore
% node6->node7
gsave
1 setlinewidth
0 0 0 edgecolor
newpath 418.56 503.7 moveto
418.56 495.98 418.56 486.71 418.56 478.11 curveto
stroke
0 0 0 edgecolor
newpath 422.06 478.1 moveto
418.56 468.1 lineto
415.06 478.1 lineto
closepath fill
1 setlinewidth
solid
0 0 0 edgecolor
newpath 422.06 478.1 moveto
418.56 468.1 lineto
415.06 478.1 lineto
closepath stroke
grestore
% node8
gsave
1 setlinewidth
0 0 0 nodecolor
418.56 378 31.94 18 ellipse_path stroke
0 0 0 nodecolor
14 /Times-Roman set_font
401.46 373.8 moveto 34.21 (node8) alignedtext
grestore
% node7->node8
gsave
1 setlinewidth
0 0 0 edgecolor
newpath 418.56 431.7 moveto
418.56 423.98 418.56 414.71 418.56 406.11 curveto
stroke
0 0 0 edgecolor
newpath 422.06 406.1 moveto
418.56 396.1 lineto
415.06 406.1 lineto
closepath fill
1 setlinewidth
solid
0 0 0 edgecolor
newpath 422.06 406.1 moveto
418.56 396.1 lineto
415.06 406.1 lineto
closepath stroke
grestore
% node9
gsave
1 setlinewidth
0 0 0 nodecolor
418.56 306 31.94 18 ellipse_path stroke
0 0 0 nodecolor
14 /Times-Roman set_font
401.46 301.8 moveto 34.21 (node9) alignedtext
grestore
% node8->node9
gsave
1 setlinewidth
0 0 0 edgecolor
newpath 418.56 359.7 moveto
418.56 351.98 418.56 342.71 418.56 334.11 curveto
stroke
0 0 0 edgecolor
newpath 422.06 334.1 moveto
418.56 324.1 lineto
415.06 334.1 lineto
closepath fill
1 setlinewidth
solid
0 0 0 edgecolor
newpath 422.06 334.1 moveto
418.56 324.1 lineto
415.06 334.1 lineto
closepath stroke
grestore
% node10
gsave
1 setlinewidth
0 0 0 nodecolor
418.56 234 36.28 18 ellipse_path stroke
0 0 0 nodecolor
14 /Times-Roman set_font
397.96 229.8 moveto 41.21 (node10) alignedtext
grestore
% node9->node10
gsave
1 setlinewidth
0 0 0 edgecolor
newpath 418.56 287.7 moveto
418.56 279.98 418.56 270.71 418.56 262.11 curveto
stroke
0 0 0 edgecolor
newpath 422.06 262.1 moveto
418.56 252.1 lineto
415.06 262.1 lineto
closepath fill
1 setlinewidth
solid
0 0 0 edgecolor
newpath 422.06 262.1 moveto
418.56 252.1 lineto
415.06 262.1 lineto
closepath stroke
grestore
% node11
gsave
1 setlinewidth
0 0 0 nodecolor
418.56 162 35.63 18 ellipse_path stroke
0 0 0 nodecolor
14 /Times-Roman set_font
398.21 157.8 moveto 40.7 (node11) alignedtext
grestore
% node10->node11
gsave
1 setlinewidth
0 0 0 edgecolor
newpath 418.56 215.7 moveto
418.56 207.98 418.56 198.71 418.56 190.11 curveto
stroke
0 0 0 edgecolor
newpath 422.06 190.1 moveto
418.56 180.1 lineto
415.06 190.1 lineto
closepath fill
1 setlinewidth
solid
0 0 0 edgecolor
newpath 422.06 190.1 moveto
418.56 180.1 lineto
415.06 190.1 lineto
closepath stroke
grestore
% package12
gsave
1 setlinewidth
0 0 0 nodecolor
newpath 385.56 108 moveto
331.56 108 lineto
331.56 72 lineto
385.56 72 lineto
closepath stroke
0 0 0 nodecolor
14 /Times-Roman set_font
350.4 85.8 moveto 16.32 (c:c) alignedtext
grestore
% node11->package12
gsave
1 setlinewidth
0 0 0 edgecolor
newpath 404.95 145.12 moveto
397.6 136.54 388.36 125.77 380.07 116.09 curveto
stroke
0 0 0 edgecolor
newpath 382.55 113.61 moveto
373.38 108.29 lineto
377.23 118.16 lineto
closepath fill
1 setlinewidth
solid
0 0 0 edgecolor
newpath 382.55 113.61 moveto
373.38 108.29 lineto
377.23 118.16 lineto
closepath stroke
grestore
% package13
gsave
1 setlinewidth
0 0 0 nodecolor
newpath 457.56 108 moveto
403.56 108 lineto
403.56 72 lineto
457.56 72 lineto
closepath stroke
0 0 0 nodecolor
14 /Times-Roman set_font
421.62 85.8 moveto 17.89 (d:d) alignedtext
grestore
% node11->package13
gsave
1 setlinewidth
0 0 0 edgecolor
newpath 421.47 144.05 moveto
422.79 136.35 424.39 127.03 425.87 118.36 curveto
stroke
0 0 0 edgecolor
newpath 429.36 118.72 moveto
427.6 108.28 lineto
422.46 117.54 lineto
closepath fill
1 setlinewidth
solid
0 0 0 edgecolor
newpath 429.36 118.72 moveto
427.6 108.28 lineto
422.46 117.54 lineto
closepath stroke
grestore
% package14
gsave
1 setlinewidth
0 0 0 nodecolor
newpath 308.56 108 moveto
254.56 108 lineto
254.56 72 lineto
308.56 72 lineto
closepath stroke
0 0 0 nodecolor
14 /Times-Roman set_font
273.4 85.8 moveto 16.32 (e:e) alignedtext
grestore
% node11->package14
gsave
1 setlinewidth
0 0 0 edgecolor
newpath 394.38 148.65 moveto
373.23 137.84 342.18 121.97 318.01 109.62 curveto
stroke
0 0 0 edgecolor
newpath 319.29 106.34 moveto
308.79 104.91 lineto
316.1 112.58 lineto
closepath fill
1 setlinewidth
solid
0 0 0 edgecolor
newpath 319.29 106.34 moveto
308.79 104.91 lineto
316.1 112.58 lineto
closepath stroke
grestore
% root3
gsave
1 setlinewidth
0 0 0 nodecolor
324.56 162 40.62 18 ellipse_path stroke
0.66667 1 1 nodecolor
14 /Times-Roman set_font
300.46 157.8 moveto 48.21 (version3) alignedtext
grestore
% root3->package14
gsave
1 setlinewidth
0 0 0 edgecolor
newpath 314.37 144.41 moveto
309.38 136.28 303.25 126.31 297.65 117.18 curveto
stroke
0 0 0 edgecolor
newpath 300.5 115.14 moveto
292.28 108.45 lineto
294.53 118.8 lineto
closepath fill
1 setlinewidth
solid
0 0 0 edgecolor
newpath 300.5 115.14 moveto
292.28 108.45 lineto
294.53 118.8 lineto
closepath stroke
grestore
% root4
gsave
1 setlinewidth
0 0 0 nodecolor
139.56 234 40.62 18 ellipse_path stroke
0.66667 1 1 nodecolor
14 /Times-Roman set_font
115.46 229.8 moveto 48.21 (version4) alignedtext
grestore
% node15
gsave
1 setlinewidth
0 0 0 nodecolor
139.56 162 36.28 18 ellipse_path stroke
0 0 0 nodecolor
14 /Times-Roman set_font
118.96 157.8 moveto 41.21 (node15) alignedtext
grestore
% root4->node15
gsave
1 setlinewidth
0 0 0 edgecolor
newpath 139.56 215.7 moveto
139.56 207.98 139.56 198.71 139.56 190.11 curveto
stroke
0 0 0 edgecolor
newpath 143.06 190.1 moveto
139.56 180.1 lineto
136.06 190.1 lineto
closepath fill
1 setlinewidth
solid
0 0 0 edgecolor
newpath 143.06 190.1 moveto
139.56 180.1 lineto
136.06 190.1 lineto
closepath stroke
grestore
% node15->node2
gsave
1 setlinewidth
0 0 0 edgecolor
newpath 123.58 145.46 moveto
113.85 136 101.25 123.75 90.47 113.27 curveto
stroke
0 0 0 edgecolor
newpath 92.61 110.47 moveto
83 106.01 lineto
87.73 115.49 lineto
closepath fill
1 setlinewidth
solid
0 0 0 edgecolor
newpath 92.61 110.47 moveto
83 106.01 lineto
87.73 115.49 lineto
closepath stroke
grestore
% node15->package5
gsave
1 setlinewidth
0 0 0 edgecolor
newpath 141.79 143.7 moveto
142.78 135.98 143.97 126.71 145.08 118.11 curveto
stroke
0 0 0 edgecolor
newpath 148.56 118.47 moveto
146.36 108.1 lineto
141.62 117.58 lineto
closepath fill
1 setlinewidth
solid
0 0 0 edgecolor
newpath 148.56 118.47 moveto
146.36 108.1 lineto
141.62 117.58 lineto
closepath stroke
grestore
% node15->package14
gsave
1 setlinewidth
0 0 0 edgecolor
newpath 164.3 148.81 moveto
186.56 137.83 219.58 121.56 244.91 109.07 curveto
stroke
0 0 0 edgecolor
newpath 246.78 112.05 moveto
254.2 104.49 lineto
243.69 105.77 lineto
closepath fill
1 setlinewidth
solid
0 0 0 edgecolor
newpath 246.78 112.05 moveto
254.2 104.49 lineto
243.69 105.77 lineto
closepath stroke
grestore
% root5
gsave
1 setlinewidth
0 0 0 nodecolor
238.56 234 40.62 18 ellipse_path stroke
0.66667 1 1 nodecolor
14 /Times-Roman set_font
214.46 229.8 moveto 48.21 (version5) alignedtext
grestore
% node16
gsave
1 setlinewidth
0 0 0 nodecolor
229.56 162 36.28 18 ellipse_path stroke
0 0 0 nodecolor
14 /Times-Roman set_font
208.96 157.8 moveto 41.21 (node16) alignedtext
grestore
% root5->node16
gsave
1 setlinewidth
0 0 0 edgecolor
newpath 236.34 215.7 moveto
235.35 207.98 234.15 198.71 233.05 190.11 curveto
stroke
0 0 0 edgecolor
newpath 236.51 189.58 moveto
231.76 180.1 lineto
229.57 190.47 lineto
closepath fill
1 setlinewidth
solid
0 0 0 edgecolor
newpath 236.51 189.58 moveto
231.76 180.1 lineto
229.57 190.47 lineto
closepath stroke
grestore
% node16->package4
gsave
1 setlinewidth
0 0 0 edgecolor
newpath 223.51 144.15 moveto
214.78 119.84 198.55 74.66 188.17 45.75 curveto
stroke
0 0 0 edgecolor
newpath 191.44 44.5 moveto
184.76 36.27 lineto
184.85 46.86 lineto
closepath fill
1 setlinewidth
solid
0 0 0 edgecolor
newpath 191.44 44.5 moveto
184.76 36.27 lineto
184.85 46.86 lineto
closepath stroke
grestore
% node16->package5
gsave
1 setlinewidth
0 0 0 edgecolor
newpath 212.38 146.15 moveto
201.79 137 187.98 125.06 175.91 114.63 curveto
stroke
0 0 0 edgecolor
newpath 178.13 111.93 moveto
168.28 108.04 lineto
173.56 117.23 lineto
closepath fill
1 setlinewidth
solid
0 0 0 edgecolor
newpath 178.13 111.93 moveto
168.28 108.04 lineto
173.56 117.23 lineto
closepath stroke
grestore
% node16->package14
gsave
1 setlinewidth
0 0 0 edgecolor
newpath 241.62 144.76 moveto
247.87 136.35 255.64 125.89 262.67 116.44 curveto
stroke
0 0 0 edgecolor
newpath 265.69 118.24 moveto
268.84 108.12 lineto
260.07 114.06 lineto
closepath fill
1 setlinewidth
solid
0 0 0 edgecolor
newpath 265.69 118.24 moveto
268.84 108.12 lineto
260.07 114.06 lineto
closepath stroke
grestore
endpage
showpage
grestore
%%PageTrailer
%%EndPage: 1
%%Trailer
%%Pages: 1
%%BoundingBox: 36 36 503 656
end
restore
%%EOF
