1000
PUT:  [ 1, 638018122 ]
GET:  [ 0, 192823409 ]
ApproxSize: 0
920K	./test/
PUT:  [ 1, 561030058 ]
GET:  [ 0, 164291908 ]
ApproxSize: 0
920K	./test/
PUT:  [ 1, 666768920 ]
GET:  [ 0, 164724897 ]
ApproxSize: 0
920K	./test/
2000
PUT:  [ 3, 59004798 ]
GET:  [ 0, 327427598 ]
ApproxSize: 0
1,8M	./test/
PUT:  [ 3, 65903011 ]
GET:  [ 0, 327816793 ]
ApproxSize: 0
1,8M	./test/
PUT:  [ 3, 80248878 ]
GET:  [ 0, 331955133 ]
ApproxSize: 0
1,8M	./test/
4000
PUT:  [ 6, 51906191 ]
GET:  [ 0, 664447410 ]
ApproxSize: 0
3,6M	./test/
PUT:  [ 6, 14631198 ]
GET:  [ 0, 645837199 ]
ApproxSize: 0
3,6M	./test/
PUT:  [ 5, 933225259 ]
GET:  [ 0, 671211979 ]
ApproxSize: 0
3,6M	./test/
8000
PUT:  [ 12, 166211759 ]
GET:  [ 1, 332264938 ]
ApproxSize: 2141256
5,6M	./test/
PUT:  [ 11, 856512917 ]
GET:  [ 1, 264286793 ]
ApproxSize: 2135013
5,6M	./test/
PUT:  [ 11, 940460222 ]
GET:  [ 1, 330764512 ]
ApproxSize: 2176364
5,6M	./test/
16000
PUT:  [ 25, 269862141 ]
GET:  [ 2, 736416285 ]
ApproxSize: 6351802
9,4M	./test/
PUT:  [ 24, 314516852 ]
GET:  [ 2, 945849306 ]
ApproxSize: 6354417
9,4M	./test/
PUT:  [ 25, 396977708 ]
GET:  [ 2, 837035612 ]
ApproxSize: 6362969
9,4M	./test/
