1000
PUT:  [ 1, 880437418 ]
GET:  [ 0, 352106853 ]
ApproxSize: 0
1,6M	./test/
PUT:  [ 1, 918182261 ]
GET:  [ 0, 335052294 ]
ApproxSize: 0
1,6M	./test/
PUT:  [ 1, 897409041 ]
GET:  [ 0, 334619185 ]
ApproxSize: 0
1,6M	./test/
2000
PUT:  [ 3, 782013402 ]
GET:  [ 0, 711036557 ]
ApproxSize: 0
3,2M	./test/
PUT:  [ 3, 634398421 ]
GET:  [ 0, 700501960 ]
ApproxSize: 0
3,2M	./test/
PUT:  [ 3, 801526884 ]
GET:  [ 0, 748098876 ]
ApproxSize: 0
3,2M	./test/
4000
PUT:  [ 7, 531194108 ]
GET:  [ 1, 444974599 ]
ApproxSize: 2389037
5,6M	./test/
PUT:  [ 7, 564027754 ]
GET:  [ 1, 489626286 ]
ApproxSize: 2406973
5,6M	./test/
PUT:  [ 7, 405453161 ]
GET:  [ 1, 539141059 ]
ApproxSize: 2394470
5,5M	./test/
8000
PUT:  [ 15, 373891994 ]
GET:  [ 3, 212493119 ]
ApproxSize: 9967877
10M	./test/
PUT:  [ 15, 322331837 ]
GET:  [ 3, 296974807 ]
ApproxSize: 9937358
9,9M	./test/
PUT:  [ 15, 227862402 ]
GET:  [ 3, 122756446 ]
ApproxSize: 9959555
9,9M	./test/
16000
PUT:  [ 33, 219976299 ]
GET:  [ 6, 601031349 ]
ApproxSize: 19645926
20M	./test/
PUT:  [ 35, 335258698 ]
GET:  [ 7, 186396983 ]
ApproxSize: 19642640
20M	./test/
PUT:  [ 34, 276331400 ]
GET:  [ 6, 956040451 ]
ApproxSize: 19696043
20M	./test/
